sleepy students?
…
.panel1-mysetup-auto[

```r
library(tidyverse)
url <- "https://raw.githubusercontent.com/rslasater82/MA206Datasets/main/sleep.csv"

*read_csv(file = url)
```
]
 
.panel2-mysetup-auto[

```
# A tibble: 51 × 1
   hours
   <dbl>
 1   6  
 2   5  
 3   7  
 4   6  
 5   6.5
 6   6  
 7   5.5
 8   6  
 9   4  
10   5.5
# … with 41 more rows
```
…
```r
library(tidyverse)
url <- "https://raw.githubusercontent.com/rslasater82/MA206Datasets/main/sleep.csv"

read_csv(file = url) ->
  sleep

*sleep
```
]
 
.panel2-mysetup-auto[

```
# A tibble: 51 × 1
   hours
   <dbl>
 1   6  
 2   5  
 3   7  
 4   6  
 5   6.5
 6   6  
 7   5.5
 8   6  
 9   4  
10   5.5
# … with 41 more rows
```
…
---

count: false

.panel1-plot-auto[

```r
*sleep
```
]
 
.panel2-plot-auto[

```
# A tibble: 51 × 1
   hours
   <dbl>
 1   6  
 2   5  
 3   7  
 4   6  
 5   6.5
 6   6  
 7   5.5
 8   6  
 9   4  
10   5.5
# … with 41 more rows
```
…
