lesson_08_population_mean.utf8
…
.panel1-gpas-auto[

```r
set.seed(2022)
rnorm(n = 6000, mean = 4, sd = .7) %>%
* tibble(gpa = .)
```
]
 
.panel2-gpas-auto[

```
# A tibble: 6,000 × 1
     gpa
   <dbl>
 1  4.63
 2  3.18
 3  3.37
 4  2.99
 5  3.77
 6  1.97
 7  3.26
 8  4.19
 9  4.52
10  4.17
# … with 5,990 more rows
```
…
.panel1-gpas-auto[

```r
set.seed(2022)
rnorm(n = 6000, mean = 4, sd = .7) %>%
  tibble(gpa = .) %>%
* filter(gpa < 4.0 & gpa > 0)
```
]
 
.panel2-gpas-auto[

```
# A tibble: 3,030 × 1
     gpa
   <dbl>
 1  3.18
 2  3.37
 3  2.99
 4  3.77
 5  1.97
 6  3.26
 7  3.87
 8  3.31
 9  3.96
10  3.94
# … with 3,020 more rows
```
…
```r
set.seed(2022)
rnorm(n = 6000, mean = 4, sd = .7) %>%
  tibble(gpa = .) %>%
  filter(gpa < 4.0 & gpa > 0) ->
campus_gpas

*campus_gpas
```
]
 
.panel2-gpas-auto[

```
# A tibble: 3,030 × 1
     gpa
   <dbl>
 1  3.18
 2  3.37
 3  2.99
 4  3.77
 5  1.97
 6  3.26
 7  3.87
 8  3.31
 9  3.96
10  3.94
# … with 3,020 more rows
```
…
---
count: false

.panel1-gpas_sample-auto[

```r
set.seed(2022)
*campus_gpas
```
]
 
.panel2-gpas_sample-auto[

```
# A tibble: 3,030 × 1
     gpa
   <dbl>
 1  3.18
 2  3.37
 3  2.99
 4  3.77
 5  1.97
 6  3.26
 7  3.87
 8  3.31
 9  3.96
10  3.94
# … with 3,020 more rows
```
…
.panel1-gpas_sample-auto[

```r
set.seed(2022)
campus_gpas %>%
* sample_n(size = 30)
```
]
 
.panel2-gpas_sample-auto[

```
# A tibble: 30 × 1
     gpa
   <dbl>
 1  3.40
 2  3.94
 3  3.28
 4  3.29
 5  3.14
 6  3.72
 7  3.59
 8  3.45
 9  3.18
10  2.73
# … with 20 more rows
```
…
---
count: false

.panel1-gpas_sample16-auto[

```r
set.seed(1234)
*campus_gpas
```
]
 
.panel2-gpas_sample16-auto[

```
# A tibble: 3,030 × 1
     gpa
   <dbl>
 1  3.18
 2  3.37
 3  2.99
 4  3.77
 5  1.97
 6  3.26
 7  3.87
 8  3.31
 9  3.96
10  3.94
# … with 3,020 more rows
```
…
---
count: false

.panel1-gpas_sample1000-auto[

```r
set.seed(1243)
*campus_gpas
```
]
 
.panel2-gpas_sample1000-auto[

```
# A tibble: 3,030 × 1
     gpa
   <dbl>
 1  3.18
 2  3.37
 3  2.99
 4  3.77
 5  1.97
 6  3.26
 7  3.87
 8  3.31
 9  3.96
10  3.94
# … with 3,020 more rows
```
…
.panel2-gpas_sample1000-auto[

```
 [1] 3.388677 1.969560 3.538547 3.606431 2.976201 3.261683 3.890722 3.052360
 [9] 3.716126 3.877953 3.650019 3.434358 3.595063 3.856399 2.646452 3.778816
[17] 3.873720 2.486364 3.122907 3.881048 3.999081 3.967839 3.737085 3.734207
[25] 3.246310 3.756172 3.094039 3.674179 2.979746 3.535162
```

```
# A tibble: 1,000 × 1
   trial
   <int>
 1     1
 2     2
 3     3
 4     4
 5     5
 6     6
 7     7
 8     8
 9     9
10    10
# … with 990 more rows
```
…
.panel2-gpas_sample1000-auto[

```
 [1] 3.388677 1.969560 3.538547 3.606431 2.976201 3.261683 3.890722 3.052360
 [9] 3.716126 3.877953 3.650019 3.434358 3.595063 3.856399 2.646452 3.778816
[17] 3.873720 2.486364 3.122907 3.881048 3.999081 3.967839 3.737085 3.734207
[25] 3.246310 3.756172 3.094039 3.674179 2.979746 3.535162
```

```
# A tibble: 1,000 × 2
   trial thirty_gpas_sampled
   <int> <list>             
 1     1 <dbl [30]>         
 2     2 <dbl [30]>         
 3     3 <dbl [30]>         
 4     4 <dbl [30]>         
 5     5 <dbl [30]>         
 6     6 <dbl [30]>         
 7     7 <dbl [30]>         
 8     8 <dbl [30]>         
 9     9 <dbl [30]>         
10    10 <dbl [30]>         
# … with 990 more rows
```
…
.panel2-gpas_sample1000-auto[

```
 [1] 3.388677 1.969560 3.538547 3.606431 2.976201 3.261683 3.890722 3.052360
 [9] 3.716126 3.877953 3.650019 3.434358 3.595063 3.856399 2.646452 3.778816
[17] 3.873720 2.486364 3.122907 3.881048 3.999081 3.967839 3.737085 3.734207
[25] 3.246310 3.756172 3.094039 3.674179 2.979746 3.535162
```

```
# A tibble: 1,000 × 3
   trial thirty_gpas_sampled sample_mean
   <int> <list>                    <dbl>
 1     1 <dbl [30]>                 3.47
 2     2 <dbl [30]>                 3.39
 3     3 <dbl [30]>                 3.43
 4     4 <dbl [30]>                 3.49
 5     5 <dbl [30]>                 3.49
 6     6 <dbl [30]>                 3.55
 7     7 <dbl [30]>                 3.36
 8     8 <dbl [30]>                 3.45
 9     9 <dbl [30]>                 3.37
10    10 <dbl [30]>                 3.38
# … with 990 more rows
```
…
---

count: false

.panel1-time_snippet_length-auto[

```r
*ma206data::chap2_SnippetEstimate
```
]
 
.panel2-time_snippet_length-auto[

```
# A tibble: 48 × 1
   estimate
      <dbl>
 1       10
 2       12
 3        6
 4       13
 5       15
 6       10
 7       15
 8       21
 9       10
10       15
# … with 38 more rows
```
…
